%YAML 1.1
%TAG !u! tag:unity3d.com,2011:
--- !u!1001 &5838063421923256683
PrefabInstance:
  m_ObjectHideFlags: 0
  serializedVersion: 2
  m_Modification:
    m_TransformParent: {fileID: 0}
    m_Modifications:
    - target: {fileID: 944597405671169085, guid: 6337bc4b9dac9954591a969fa039a0f7,
        type: 3}
      propertyPath: m_RootOrder
      value: 0
      objectReference: {fileID: 0}
    - target: {fileID: 944597405671169085, guid: 6337bc4b9dac9954591a969fa039a0f7,
        type: 3}
      propertyPath: m_LocalPosition.x
      value: 0
      objectReference: {fileID: 0}
    - target: {fileID: 944597405671169085, guid: 6337bc4b9dac9954591a969fa039a0f7,
        type: 3}
      propertyPath: m_LocalPosition.y
      value: 0
      objectReference: {fileID: 0}
    - target: {fileID: 944597405671169085, guid: 6337bc4b9dac9954591a969fa039a0f7,
        type: 3}
      propertyPath: m_LocalPosition.z
      value: 0
      objectReference: {fileID: 0}
    - target: {fileID: 944597405671169085, guid: 6337bc4b9dac9954591a969fa039a0f7,
        type: 3}
      propertyPath: m_LocalRotation.w
      value: 0
      objectReference: {fileID: 0}
    - target: {fileID: 944597405671169085, guid: 6337bc4b9dac9954591a969fa039a0f7,
        type: 3}
      propertyPath: m_LocalRotation.x
      value: 0
      objectReference: {fileID: 0}
    - target: {fileID: 944597405671169085, guid: 6337bc4b9dac9954591a969fa039a0f7,
        type: 3}
      propertyPath: m_LocalRotation.y
      value: 1
      objectReference: {fileID: 0}
    - target: {fileID: 944597405671169085, guid: 6337bc4b9dac9954591a969fa039a0f7,
        type: 3}
      propertyPath: m_LocalRotation.z
      value: 0
      objectReference: {fileID: 0}
    - target: {fileID: 944597405671169085, guid: 6337bc4b9dac9954591a969fa039a0f7,
        type: 3}
      propertyPath: m_LocalEulerAnglesHint.x
      value: 0
      objectReference: {fileID: 0}
    - target: {fileID: 944597405671169085, guid: 6337bc4b9dac9954591a969fa039a0f7,
        type: 3}
      propertyPath: m_LocalEulerAnglesHint.y
      value: 180
      objectReference: {fileID: 0}
    - target: {fileID: 944597405671169085, guid: 6337bc4b9dac9954591a969fa039a0f7,
        type: 3}
      propertyPath: m_LocalEulerAnglesHint.z
      value: 0
      objectReference: {fileID: 0}
    - target: {fileID: 944597405671169086, guid: 6337bc4b9dac9954591a969fa039a0f7,
        type: 3}
      propertyPath: m_Name
      value: Food Box Counter-lettuce
      objectReference: {fileID: 0}
    - target: {fileID: 5660450254388075240, guid: 6337bc4b9dac9954591a969fa039a0f7,
        type: 3}
      propertyPath: kitchenObjectSO
      value: 
      objectReference: {fileID: 11400000, guid: e479e4e2902a8464da129952d1ca616d,
        type: 2}
    - target: {fileID: 8458218255736434131, guid: 6337bc4b9dac9954591a969fa039a0f7,
        type: 3}
      propertyPath: m_Sprite
      value: 
      objectReference: {fileID: 21300000, guid: 3ddbcf0284ee9bd42b478234bdc548cb,
        type: 3}
    m_RemovedComponents: []
  m_SourcePrefab: {fileID: 100100000, guid: 6337bc4b9dac9954591a969fa039a0f7, type: 3}
