%YAML 1.1
%TAG !u! tag:unity3d.com,2011:
--- !u!114 &11400000
MonoBehaviour:
  m_ObjectHideFlags: 0
  m_CorrespondingSourceObject: {fileID: 0}
  m_PrefabInstance: {fileID: 0}
  m_PrefabAsset: {fileID: 0}
  m_GameObject: {fileID: 0}
  m_Enabled: 1
  m_EditorHideFlags: 0
  m_Script: {fileID: 11500000, guid: 707973473fdbe1846bd9cfc66c1d86db, type: 3}
  m_Name: Bun Top
  m_EditorClassIdentifier: 
  objectName: Top Bun
  sprite: {fileID: 21300000, guid: 990e75202df338c4caceedf38617cd28, type: 3}
  prefab: {fileID: 257917313225972335, guid: 1d919641965f5f348ab677f1139dbe56, type: 3}
