%YAML 1.1
%TAG !u! tag:unity3d.com,2011:
--- !u!114 &11400000
MonoBehaviour:
  m_ObjectHideFlags: 0
  m_CorrespondingSourceObject: {fileID: 0}
  m_PrefabInstance: {fileID: 0}
  m_PrefabAsset: {fileID: 0}
  m_GameObject: {fileID: 0}
  m_Enabled: 1
  m_EditorHideFlags: 0
  m_Script: {fileID: 11500000, guid: 707973473fdbe1846bd9cfc66c1d86db, type: 3}
  m_Name: Tomato
  m_EditorClassIdentifier: 
  objectName: Tomato
  sprite: {fileID: 21300000, guid: b61f4fd9f48f66f4ab4c102b96c939f4, type: 3}
  prefab: {fileID: 6072682906422065741, guid: 47e3e6bff21ee9d4e89abf1cffcfb625, type: 3}
