%YAML 1.1
%TAG !u! tag:unity3d.com,2011:
--- !u!114 &11400000
MonoBehaviour:
  m_ObjectHideFlags: 0
  m_CorrespondingSourceObject: {fileID: 0}
  m_PrefabInstance: {fileID: 0}
  m_PrefabAsset: {fileID: 0}
  m_GameObject: {fileID: 0}
  m_Enabled: 1
  m_EditorHideFlags: 0
  m_Script: {fileID: 11500000, guid: 707973473fdbe1846bd9cfc66c1d86db, type: 3}
  m_Name: Tomato Slices
  m_EditorClassIdentifier: 
  objectName: Tomato Slices
  sprite: {fileID: 21300000, guid: 39198e2013508704292faa31afd8a927, type: 3}
  prefab: {fileID: 5707989327053285316, guid: 20f161bb8501eb14e828a7d7b1dd9b20, type: 3}
