%YAML 1.1
%TAG !u! tag:unity3d.com,2011:
--- !u!1001 &1495010814620368728
PrefabInstance:
  m_ObjectHideFlags: 0
  serializedVersion: 2
  m_Modification:
    m_TransformParent: {fileID: 0}
    m_Modifications:
    - target: {fileID: 1669452294121432375, guid: 6bf5e9062c9cda54bb0db16bb9a1ff8f,
        type: 3}
      propertyPath: m_RootOrder
      value: 0
      objectReference: {fileID: 0}
    - target: {fileID: 1669452294121432375, guid: 6bf5e9062c9cda54bb0db16bb9a1ff8f,
        type: 3}
      propertyPath: m_LocalPosition.x
      value: 0
      objectReference: {fileID: 0}
    - target: {fileID: 1669452294121432375, guid: 6bf5e9062c9cda54bb0db16bb9a1ff8f,
        type: 3}
      propertyPath: m_LocalPosition.y
      value: 0
      objectReference: {fileID: 0}
    - target: {fileID: 1669452294121432375, guid: 6bf5e9062c9cda54bb0db16bb9a1ff8f,
        type: 3}
      propertyPath: m_LocalPosition.z
      value: 0
      objectReference: {fileID: 0}
    - target: {fileID: 1669452294121432375, guid: 6bf5e9062c9cda54bb0db16bb9a1ff8f,
        type: 3}
      propertyPath: m_LocalRotation.w
      value: 1
      objectReference: {fileID: 0}
    - target: {fileID: 1669452294121432375, guid: 6bf5e9062c9cda54bb0db16bb9a1ff8f,
        type: 3}
      propertyPath: m_LocalRotation.x
      value: 0
      objectReference: {fileID: 0}
    - target: {fileID: 1669452294121432375, guid: 6bf5e9062c9cda54bb0db16bb9a1ff8f,
        type: 3}
      propertyPath: m_LocalRotation.y
      value: 0
      objectReference: {fileID: 0}
    - target: {fileID: 1669452294121432375, guid: 6bf5e9062c9cda54bb0db16bb9a1ff8f,
        type: 3}
      propertyPath: m_LocalRotation.z
      value: 0
      objectReference: {fileID: 0}
    - target: {fileID: 1669452294121432375, guid: 6bf5e9062c9cda54bb0db16bb9a1ff8f,
        type: 3}
      propertyPath: m_LocalEulerAnglesHint.x
      value: 0
      objectReference: {fileID: 0}
    - target: {fileID: 1669452294121432375, guid: 6bf5e9062c9cda54bb0db16bb9a1ff8f,
        type: 3}
      propertyPath: m_LocalEulerAnglesHint.y
      value: 0
      objectReference: {fileID: 0}
    - target: {fileID: 1669452294121432375, guid: 6bf5e9062c9cda54bb0db16bb9a1ff8f,
        type: 3}
      propertyPath: m_LocalEulerAnglesHint.z
      value: 0
      objectReference: {fileID: 0}
    - target: {fileID: 5129500252108150971, guid: 6bf5e9062c9cda54bb0db16bb9a1ff8f,
        type: 3}
      propertyPath: m_Name
      value: Bun Top
      objectReference: {fileID: 0}
    - target: {fileID: 8677848781391526071, guid: 6bf5e9062c9cda54bb0db16bb9a1ff8f,
        type: 3}
      propertyPath: kitchenObjectSO
      value: 
      objectReference: {fileID: 11400000, guid: ce5c158524cc91148834bbc9e5629a8a,
        type: 2}
    m_RemovedComponents: []
  m_SourcePrefab: {fileID: 100100000, guid: 6bf5e9062c9cda54bb0db16bb9a1ff8f, type: 3}
--- !u!4 &3677289365138637135 stripped
Transform:
  m_CorrespondingSourceObject: {fileID: 2861759781716721175, guid: 6bf5e9062c9cda54bb0db16bb9a1ff8f,
    type: 3}
  m_PrefabInstance: {fileID: 1495010814620368728}
  m_PrefabAsset: {fileID: 0}
--- !u!1001 &3851596080206634911
PrefabInstance:
  m_ObjectHideFlags: 0
  serializedVersion: 2
  m_Modification:
    m_TransformParent: {fileID: 3677289365138637135}
    m_Modifications:
    - target: {fileID: -8679921383154817045, guid: bc4cdf68ef8e8bd45b9339109acdc5b6,
        type: 3}
      propertyPath: m_RootOrder
      value: 0
      objectReference: {fileID: 0}
    - target: {fileID: -8679921383154817045, guid: bc4cdf68ef8e8bd45b9339109acdc5b6,
        type: 3}
      propertyPath: m_LocalScale.x
      value: 0.15
      objectReference: {fileID: 0}
    - target: {fileID: -8679921383154817045, guid: bc4cdf68ef8e8bd45b9339109acdc5b6,
        type: 3}
      propertyPath: m_LocalScale.y
      value: 0.15
      objectReference: {fileID: 0}
    - target: {fileID: -8679921383154817045, guid: bc4cdf68ef8e8bd45b9339109acdc5b6,
        type: 3}
      propertyPath: m_LocalScale.z
      value: 0.15
      objectReference: {fileID: 0}
    - target: {fileID: -8679921383154817045, guid: bc4cdf68ef8e8bd45b9339109acdc5b6,
        type: 3}
      propertyPath: m_LocalPosition.x
      value: -0
      objectReference: {fileID: 0}
    - target: {fileID: -8679921383154817045, guid: bc4cdf68ef8e8bd45b9339109acdc5b6,
        type: 3}
      propertyPath: m_LocalPosition.y
      value: 0
      objectReference: {fileID: 0}
    - target: {fileID: -8679921383154817045, guid: bc4cdf68ef8e8bd45b9339109acdc5b6,
        type: 3}
      propertyPath: m_LocalPosition.z
      value: 0
      objectReference: {fileID: 0}
    - target: {fileID: -8679921383154817045, guid: bc4cdf68ef8e8bd45b9339109acdc5b6,
        type: 3}
      propertyPath: m_LocalRotation.w
      value: 1
      objectReference: {fileID: 0}
    - target: {fileID: -8679921383154817045, guid: bc4cdf68ef8e8bd45b9339109acdc5b6,
        type: 3}
      propertyPath: m_LocalRotation.x
      value: 0
      objectReference: {fileID: 0}
    - target: {fileID: -8679921383154817045, guid: bc4cdf68ef8e8bd45b9339109acdc5b6,
        type: 3}
      propertyPath: m_LocalRotation.y
      value: -0
      objectReference: {fileID: 0}
    - target: {fileID: -8679921383154817045, guid: bc4cdf68ef8e8bd45b9339109acdc5b6,
        type: 3}
      propertyPath: m_LocalRotation.z
      value: -0
      objectReference: {fileID: 0}
    - target: {fileID: -8679921383154817045, guid: bc4cdf68ef8e8bd45b9339109acdc5b6,
        type: 3}
      propertyPath: m_LocalEulerAnglesHint.x
      value: 0
      objectReference: {fileID: 0}
    - target: {fileID: -8679921383154817045, guid: bc4cdf68ef8e8bd45b9339109acdc5b6,
        type: 3}
      propertyPath: m_LocalEulerAnglesHint.y
      value: 0
      objectReference: {fileID: 0}
    - target: {fileID: -8679921383154817045, guid: bc4cdf68ef8e8bd45b9339109acdc5b6,
        type: 3}
      propertyPath: m_LocalEulerAnglesHint.z
      value: 0
      objectReference: {fileID: 0}
    - target: {fileID: -8679921383154817045, guid: bc4cdf68ef8e8bd45b9339109acdc5b6,
        type: 3}
      propertyPath: m_ConstrainProportionsScale
      value: 1
      objectReference: {fileID: 0}
    - target: {fileID: 919132149155446097, guid: bc4cdf68ef8e8bd45b9339109acdc5b6,
        type: 3}
      propertyPath: m_Name
      value: Bun Top
      objectReference: {fileID: 0}
    m_RemovedComponents: []
  m_SourcePrefab: {fileID: 100100000, guid: bc4cdf68ef8e8bd45b9339109acdc5b6, type: 3}
