%YAML 1.1
%TAG !u! tag:unity3d.com,2011:
--- !u!1001 &3253067634023862403
PrefabInstance:
  m_ObjectHideFlags: 0
  serializedVersion: 2
  m_Modification:
    m_TransformParent: {fileID: 6496901638600929559}
    m_Modifications:
    - target: {fileID: -8679921383154817045, guid: 1375b80f9ffad214c88386337121fe09,
        type: 3}
      propertyPath: m_RootOrder
      value: 0
      objectReference: {fileID: 0}
    - target: {fileID: -8679921383154817045, guid: 1375b80f9ffad214c88386337121fe09,
        type: 3}
      propertyPath: m_LocalScale.x
      value: 0.09
      objectReference: {fileID: 0}
    - target: {fileID: -8679921383154817045, guid: 1375b80f9ffad214c88386337121fe09,
        type: 3}
      propertyPath: m_LocalScale.y
      value: 0.09
      objectReference: {fileID: 0}
    - target: {fileID: -8679921383154817045, guid: 1375b80f9ffad214c88386337121fe09,
        type: 3}
      propertyPath: m_LocalScale.z
      value: 0.09
      objectReference: {fileID: 0}
    - target: {fileID: -8679921383154817045, guid: 1375b80f9ffad214c88386337121fe09,
        type: 3}
      propertyPath: m_LocalPosition.x
      value: 0
      objectReference: {fileID: 0}
    - target: {fileID: -8679921383154817045, guid: 1375b80f9ffad214c88386337121fe09,
        type: 3}
      propertyPath: m_LocalPosition.y
      value: 0
      objectReference: {fileID: 0}
    - target: {fileID: -8679921383154817045, guid: 1375b80f9ffad214c88386337121fe09,
        type: 3}
      propertyPath: m_LocalPosition.z
      value: 0
      objectReference: {fileID: 0}
    - target: {fileID: -8679921383154817045, guid: 1375b80f9ffad214c88386337121fe09,
        type: 3}
      propertyPath: m_LocalRotation.w
      value: 1
      objectReference: {fileID: 0}
    - target: {fileID: -8679921383154817045, guid: 1375b80f9ffad214c88386337121fe09,
        type: 3}
      propertyPath: m_LocalRotation.x
      value: 0
      objectReference: {fileID: 0}
    - target: {fileID: -8679921383154817045, guid: 1375b80f9ffad214c88386337121fe09,
        type: 3}
      propertyPath: m_LocalRotation.y
      value: -0
      objectReference: {fileID: 0}
    - target: {fileID: -8679921383154817045, guid: 1375b80f9ffad214c88386337121fe09,
        type: 3}
      propertyPath: m_LocalRotation.z
      value: -0
      objectReference: {fileID: 0}
    - target: {fileID: -8679921383154817045, guid: 1375b80f9ffad214c88386337121fe09,
        type: 3}
      propertyPath: m_LocalEulerAnglesHint.x
      value: 0
      objectReference: {fileID: 0}
    - target: {fileID: -8679921383154817045, guid: 1375b80f9ffad214c88386337121fe09,
        type: 3}
      propertyPath: m_LocalEulerAnglesHint.y
      value: 0
      objectReference: {fileID: 0}
    - target: {fileID: -8679921383154817045, guid: 1375b80f9ffad214c88386337121fe09,
        type: 3}
      propertyPath: m_LocalEulerAnglesHint.z
      value: 0
      objectReference: {fileID: 0}
    - target: {fileID: -8679921383154817045, guid: 1375b80f9ffad214c88386337121fe09,
        type: 3}
      propertyPath: m_ConstrainProportionsScale
      value: 1
      objectReference: {fileID: 0}
    - target: {fileID: 919132149155446097, guid: 1375b80f9ffad214c88386337121fe09,
        type: 3}
      propertyPath: m_Name
      value: cheese slices
      objectReference: {fileID: 0}
    m_RemovedComponents: []
  m_SourcePrefab: {fileID: 100100000, guid: 1375b80f9ffad214c88386337121fe09, type: 3}
--- !u!1001 &9051851271019908864
PrefabInstance:
  m_ObjectHideFlags: 0
  serializedVersion: 2
  m_Modification:
    m_TransformParent: {fileID: 0}
    m_Modifications:
    - target: {fileID: 1669452294121432375, guid: 6bf5e9062c9cda54bb0db16bb9a1ff8f,
        type: 3}
      propertyPath: m_RootOrder
      value: 0
      objectReference: {fileID: 0}
    - target: {fileID: 1669452294121432375, guid: 6bf5e9062c9cda54bb0db16bb9a1ff8f,
        type: 3}
      propertyPath: m_LocalPosition.x
      value: 0
      objectReference: {fileID: 0}
    - target: {fileID: 1669452294121432375, guid: 6bf5e9062c9cda54bb0db16bb9a1ff8f,
        type: 3}
      propertyPath: m_LocalPosition.y
      value: 0
      objectReference: {fileID: 0}
    - target: {fileID: 1669452294121432375, guid: 6bf5e9062c9cda54bb0db16bb9a1ff8f,
        type: 3}
      propertyPath: m_LocalPosition.z
      value: 0
      objectReference: {fileID: 0}
    - target: {fileID: 1669452294121432375, guid: 6bf5e9062c9cda54bb0db16bb9a1ff8f,
        type: 3}
      propertyPath: m_LocalRotation.w
      value: 1
      objectReference: {fileID: 0}
    - target: {fileID: 1669452294121432375, guid: 6bf5e9062c9cda54bb0db16bb9a1ff8f,
        type: 3}
      propertyPath: m_LocalRotation.x
      value: 0
      objectReference: {fileID: 0}
    - target: {fileID: 1669452294121432375, guid: 6bf5e9062c9cda54bb0db16bb9a1ff8f,
        type: 3}
      propertyPath: m_LocalRotation.y
      value: 0
      objectReference: {fileID: 0}
    - target: {fileID: 1669452294121432375, guid: 6bf5e9062c9cda54bb0db16bb9a1ff8f,
        type: 3}
      propertyPath: m_LocalRotation.z
      value: 0
      objectReference: {fileID: 0}
    - target: {fileID: 1669452294121432375, guid: 6bf5e9062c9cda54bb0db16bb9a1ff8f,
        type: 3}
      propertyPath: m_LocalEulerAnglesHint.x
      value: 0
      objectReference: {fileID: 0}
    - target: {fileID: 1669452294121432375, guid: 6bf5e9062c9cda54bb0db16bb9a1ff8f,
        type: 3}
      propertyPath: m_LocalEulerAnglesHint.y
      value: 0
      objectReference: {fileID: 0}
    - target: {fileID: 1669452294121432375, guid: 6bf5e9062c9cda54bb0db16bb9a1ff8f,
        type: 3}
      propertyPath: m_LocalEulerAnglesHint.z
      value: 0
      objectReference: {fileID: 0}
    - target: {fileID: 5129500252108150971, guid: 6bf5e9062c9cda54bb0db16bb9a1ff8f,
        type: 3}
      propertyPath: m_Name
      value: Cheese Slices
      objectReference: {fileID: 0}
    - target: {fileID: 8677848781391526071, guid: 6bf5e9062c9cda54bb0db16bb9a1ff8f,
        type: 3}
      propertyPath: kitchenObjectSO
      value: 
      objectReference: {fileID: 11400000, guid: 1f10d89c11032c74bb5677ee2eebc7e7,
        type: 2}
    m_RemovedComponents: []
  m_SourcePrefab: {fileID: 100100000, guid: 6bf5e9062c9cda54bb0db16bb9a1ff8f, type: 3}
--- !u!4 &6496901638600929559 stripped
Transform:
  m_CorrespondingSourceObject: {fileID: 2861759781716721175, guid: 6bf5e9062c9cda54bb0db16bb9a1ff8f,
    type: 3}
  m_PrefabInstance: {fileID: 9051851271019908864}
  m_PrefabAsset: {fileID: 0}
