%YAML 1.1
%TAG !u! tag:unity3d.com,2011:
--- !u!1001 &367132312747625038
PrefabInstance:
  m_ObjectHideFlags: 0
  serializedVersion: 2
  m_Modification:
    m_TransformParent: {fileID: 0}
    m_Modifications:
    - target: {fileID: 1669452294121432375, guid: 6bf5e9062c9cda54bb0db16bb9a1ff8f,
        type: 3}
      propertyPath: m_RootOrder
      value: 0
      objectReference: {fileID: 0}
    - target: {fileID: 1669452294121432375, guid: 6bf5e9062c9cda54bb0db16bb9a1ff8f,
        type: 3}
      propertyPath: m_LocalPosition.x
      value: 0
      objectReference: {fileID: 0}
    - target: {fileID: 1669452294121432375, guid: 6bf5e9062c9cda54bb0db16bb9a1ff8f,
        type: 3}
      propertyPath: m_LocalPosition.y
      value: 0
      objectReference: {fileID: 0}
    - target: {fileID: 1669452294121432375, guid: 6bf5e9062c9cda54bb0db16bb9a1ff8f,
        type: 3}
      propertyPath: m_LocalPosition.z
      value: 0
      objectReference: {fileID: 0}
    - target: {fileID: 1669452294121432375, guid: 6bf5e9062c9cda54bb0db16bb9a1ff8f,
        type: 3}
      propertyPath: m_LocalRotation.w
      value: 1
      objectReference: {fileID: 0}
    - target: {fileID: 1669452294121432375, guid: 6bf5e9062c9cda54bb0db16bb9a1ff8f,
        type: 3}
      propertyPath: m_LocalRotation.x
      value: 0
      objectReference: {fileID: 0}
    - target: {fileID: 1669452294121432375, guid: 6bf5e9062c9cda54bb0db16bb9a1ff8f,
        type: 3}
      propertyPath: m_LocalRotation.y
      value: 0
      objectReference: {fileID: 0}
    - target: {fileID: 1669452294121432375, guid: 6bf5e9062c9cda54bb0db16bb9a1ff8f,
        type: 3}
      propertyPath: m_LocalRotation.z
      value: 0
      objectReference: {fileID: 0}
    - target: {fileID: 1669452294121432375, guid: 6bf5e9062c9cda54bb0db16bb9a1ff8f,
        type: 3}
      propertyPath: m_LocalEulerAnglesHint.x
      value: 0
      objectReference: {fileID: 0}
    - target: {fileID: 1669452294121432375, guid: 6bf5e9062c9cda54bb0db16bb9a1ff8f,
        type: 3}
      propertyPath: m_LocalEulerAnglesHint.y
      value: 0
      objectReference: {fileID: 0}
    - target: {fileID: 1669452294121432375, guid: 6bf5e9062c9cda54bb0db16bb9a1ff8f,
        type: 3}
      propertyPath: m_LocalEulerAnglesHint.z
      value: 0
      objectReference: {fileID: 0}
    - target: {fileID: 5129500252108150971, guid: 6bf5e9062c9cda54bb0db16bb9a1ff8f,
        type: 3}
      propertyPath: m_Name
      value: Meat Burned
      objectReference: {fileID: 0}
    - target: {fileID: 8677848781391526071, guid: 6bf5e9062c9cda54bb0db16bb9a1ff8f,
        type: 3}
      propertyPath: kitchenObjectSO
      value: 
      objectReference: {fileID: 11400000, guid: c4d5b43d5c8964e41b904a0820d5e847,
        type: 2}
    m_RemovedComponents: []
  m_SourcePrefab: {fileID: 100100000, guid: 6bf5e9062c9cda54bb0db16bb9a1ff8f, type: 3}
--- !u!4 &2499308399550444633 stripped
Transform:
  m_CorrespondingSourceObject: {fileID: 2861759781716721175, guid: 6bf5e9062c9cda54bb0db16bb9a1ff8f,
    type: 3}
  m_PrefabInstance: {fileID: 367132312747625038}
  m_PrefabAsset: {fileID: 0}
--- !u!1001 &1511820150126569246
PrefabInstance:
  m_ObjectHideFlags: 0
  serializedVersion: 2
  m_Modification:
    m_TransformParent: {fileID: 2499308399550444633}
    m_Modifications:
    - target: {fileID: -8679921383154817045, guid: 432f0f16deeb01641bcc49b3304cf999,
        type: 3}
      propertyPath: m_RootOrder
      value: 0
      objectReference: {fileID: 0}
    - target: {fileID: -8679921383154817045, guid: 432f0f16deeb01641bcc49b3304cf999,
        type: 3}
      propertyPath: m_LocalScale.x
      value: 15
      objectReference: {fileID: 0}
    - target: {fileID: -8679921383154817045, guid: 432f0f16deeb01641bcc49b3304cf999,
        type: 3}
      propertyPath: m_LocalScale.y
      value: 15
      objectReference: {fileID: 0}
    - target: {fileID: -8679921383154817045, guid: 432f0f16deeb01641bcc49b3304cf999,
        type: 3}
      propertyPath: m_LocalScale.z
      value: 15
      objectReference: {fileID: 0}
    - target: {fileID: -8679921383154817045, guid: 432f0f16deeb01641bcc49b3304cf999,
        type: 3}
      propertyPath: m_LocalPosition.x
      value: -0
      objectReference: {fileID: 0}
    - target: {fileID: -8679921383154817045, guid: 432f0f16deeb01641bcc49b3304cf999,
        type: 3}
      propertyPath: m_LocalPosition.y
      value: 0.02
      objectReference: {fileID: 0}
    - target: {fileID: -8679921383154817045, guid: 432f0f16deeb01641bcc49b3304cf999,
        type: 3}
      propertyPath: m_LocalPosition.z
      value: 0
      objectReference: {fileID: 0}
    - target: {fileID: -8679921383154817045, guid: 432f0f16deeb01641bcc49b3304cf999,
        type: 3}
      propertyPath: m_LocalRotation.w
      value: 0.7071068
      objectReference: {fileID: 0}
    - target: {fileID: -8679921383154817045, guid: 432f0f16deeb01641bcc49b3304cf999,
        type: 3}
      propertyPath: m_LocalRotation.x
      value: 0.7071068
      objectReference: {fileID: 0}
    - target: {fileID: -8679921383154817045, guid: 432f0f16deeb01641bcc49b3304cf999,
        type: 3}
      propertyPath: m_LocalRotation.y
      value: 0
      objectReference: {fileID: 0}
    - target: {fileID: -8679921383154817045, guid: 432f0f16deeb01641bcc49b3304cf999,
        type: 3}
      propertyPath: m_LocalRotation.z
      value: 0
      objectReference: {fileID: 0}
    - target: {fileID: -8679921383154817045, guid: 432f0f16deeb01641bcc49b3304cf999,
        type: 3}
      propertyPath: m_LocalEulerAnglesHint.x
      value: 90
      objectReference: {fileID: 0}
    - target: {fileID: -8679921383154817045, guid: 432f0f16deeb01641bcc49b3304cf999,
        type: 3}
      propertyPath: m_LocalEulerAnglesHint.y
      value: 0
      objectReference: {fileID: 0}
    - target: {fileID: -8679921383154817045, guid: 432f0f16deeb01641bcc49b3304cf999,
        type: 3}
      propertyPath: m_LocalEulerAnglesHint.z
      value: 0
      objectReference: {fileID: 0}
    - target: {fileID: -8679921383154817045, guid: 432f0f16deeb01641bcc49b3304cf999,
        type: 3}
      propertyPath: m_ConstrainProportionsScale
      value: 1
      objectReference: {fileID: 0}
    - target: {fileID: 919132149155446097, guid: 432f0f16deeb01641bcc49b3304cf999,
        type: 3}
      propertyPath: m_Name
      value: meat burned
      objectReference: {fileID: 0}
    m_RemovedComponents: []
  m_SourcePrefab: {fileID: 100100000, guid: 432f0f16deeb01641bcc49b3304cf999, type: 3}
